<?xml version="1.0" encoding="utf-8"?>
<!-- Generator: Adobe Illustrator 22.0.1, SVG Export Plug-In . SVG Version: 6.00 Build 0)  -->
<svg version="1.1" id="clear-night" xmlns="http://www.w3.org/2000/svg" xmlns:xlink="http://www.w3.org/1999/xlink" x="0px" y="0px"
	 viewBox="0 0 32 20" fill="#007bab" xml:space="preserve">
<path d="M9 19.8c-3.4 0-6.5-1.7-8.3-4.6-.2-.3-.1-.7.1-1 .3-.2.7-.3 1 0 .9.7 2 1.1 3.2 1.1 2.9 0 5.2-2.4 5.2-5.2S7.9 4.8 5 4.8c-1.1 0-2.2.4-3.2 1.1-.3.1-.7.1-.9-.1s-.3-.6-.1-1C2.5 2 5.6.2 9 .2c5.4 0 9.8 4.4 9.8 9.8s-4.4 9.8-9.8 9.8zm-4.8-3.1c1.4 1 3 1.5 4.8 1.5 4.5 0 8.2-3.7 8.2-8.2S13.5 1.8 9 1.8c-1.8 0-3.4.6-4.8 1.5H5c3.7 0 6.8 3 6.8 6.8s-3 6.8-6.8 6.8c-.3-.1-.5-.2-.8-.2z"/>
</svg>
