<?xml version="1.0" encoding="utf-8"?>
<!-- Generator: Adobe Illustrator 22.0.1, SVG Export Plug-In . SVG Version: 6.00 Build 0)  -->
<svg version="1.1" id="light-snow" xmlns="http://www.w3.org/2000/svg" xmlns:xlink="http://www.w3.org/1999/xlink" x="0px" y="0px"
	 viewBox="0 0 32 20" fill="#007bab" xml:space="preserve">
<path d="M19 15.8c-.4 0-.8-.3-.8-.8s.3-.8.8-.8c2.3 0 4.2-1.9 4.2-4.2S21.3 5.8 19 5.8h-.4l-.7.1-.2-.5c-1-2.2-3.2-3.6-5.7-3.6-3.1 0-5.7 2.3-6.2 5.4l-.1.6h-.8c-1.7 0-3.2 1.5-3.2 3.3s1.5 3.2 3.2 3.2c.4 0 .8.3.8.8s-.3.7-.7.7C2.4 15.8.2 13.7.2 11 .2 8.6 2 6.6 4.4 6.3c.8-3.5 3.9-6 7.6-6 2.8 0 5.4 1.6 6.8 4h.2c3.2 0 5.8 2.6 5.8 5.8s-2.6 5.7-5.8 5.7zm-8 2.7c0-.8-.7-1.5-1.5-1.5S8 17.7 8 18.5 8.7 20 9.5 20s1.5-.7 1.5-1.5zm6 0c0-.8-.7-1.5-1.5-1.5s-1.5.7-1.5 1.5.7 1.5 1.5 1.5 1.5-.7 1.5-1.5zm-3-4c0-.8-.7-1.5-1.5-1.5s-1.5.7-1.5 1.5.7 1.5 1.5 1.5 1.5-.7 1.5-1.5z"/>
</svg>
