<?xml version="1.0" encoding="utf-8"?>
<!-- Generator: Adobe Illustrator 22.0.1, SVG Export Plug-In . SVG Version: 6.00 Build 0)  -->
<svg version="1.1" id="rain" xmlns="http://www.w3.org/2000/svg" xmlns:xlink="http://www.w3.org/1999/xlink" x="0px" y="0px"
	 viewBox="0 0 32 20" fill="#007bab" xml:space="preserve">
<path d="M9 13c-.6 0-1 .4-1 1v3c0 .6.4 1 1 1s1-.4 1-1v-3c0-.6-.4-1-1-1zM12 15c-.6 0-1 .4-1 1v3c0 .6.4 1 1 1s1-.4 1-1v-3c0-.6-.4-1-1-1zM15 13c-.6 0-1 .4-1 1v3c0 .6.4 1 1 1s1-.4 1-1v-3c0-.6-.4-1-1-1z"/><path d="M18.9 4c-1.4-2.5-4.1-4-6.9-4-3.7 0-6.9 2.6-7.8 6.1C1.8 6.4 0 8.5 0 11c0 2.8 2.2 5 5 5v3c0 .6.4 1 1 1s1-.4 1-1v-5H5c-1.7 0-3-1.3-3-3 0-1.6 1.3-3 2.9-3h1l.1-.9C6.5 4.2 9 2 12 2c2.3 0 4.5 1.4 5.4 3.5l.3.7.9-.2h.4c2.2 0 4 1.8 4 4s-1.8 4-4 4h-2v5c0 .6.4 1 1 1s1-.4 1-1v-3c3.3 0 6-2.7 6-6s-2.8-6-6.1-6z"/>
</svg>
